<?xml version="1.0" encoding="utf-8"?>
<!-- Generator: Adobe Illustrator 16.0.0, SVG Export Plug-In . SVG Version: 6.00 Build 0)  -->
<!DOCTYPE svg PUBLIC "-//W3C//DTD SVG 1.1//EN" "http://www.w3.org/Graphics/SVG/1.1/DTD/svg11.dtd">
<svg version="1.1" id="Layer_1" xmlns="http://www.w3.org/2000/svg" xmlns:xlink="http://www.w3.org/1999/xlink" x="0px" y="0px"
	 width="40.2px" height="53.6px" viewBox="0 0 40.2 53.6" style="enable-background:new 0 0 40.2 53.6;" xml:space="preserve">
<style type="text/css">
<![CDATA[
	.st0{clip-path:url(#SVGID_4_);fill:#010101;}
	.st1{fill:none;stroke:#010101;stroke-width:1.25;stroke-linecap:round;stroke-miterlimit:10;}
	.st2{clip-path:url(#SVGID_8_);fill:#010101;}
	.st3{clip-path:url(#SVGID_2_);}
	.st4{clip-path:url(#SVGID_6_);}
	.st5{fill:none;stroke:#010101;stroke-width:1.25;stroke-miterlimit:10;}
	.st6{clip-path:url(#SVGID_12_);fill:#010101;}
	.st7{clip-path:url(#SVGID_10_);}
]]>
</style>
<g>
	<defs>
		<path id="SVGID_1_" d="M20.6,49.6c-1.1,0-2,0.9-2,2s0.9,2,2,2s2-0.9,2-2S21.7,49.6,20.6,49.6"/>
	</defs>
	<clipPath id="SVGID_2_">
		<use xlink:href="#SVGID_1_"  style="overflow:visible;"/>
	</clipPath>
	<g class="st3">
		<defs>
			<rect id="SVGID_3_" x="-396.4" y="-350.4" width="1686" height="577"/>
		</defs>
		<clipPath id="SVGID_4_">
			<use xlink:href="#SVGID_3_"  style="overflow:visible;"/>
		</clipPath>
		<rect x="13.6" y="44.6" class="st0" width="14" height="14"/>
	</g>
</g>
<g>
	<defs>
		<path id="SVGID_5_" d="M4.6,49.6c-1.1,0-2,0.9-2,2s0.9,2,2,2s2-0.9,2-2S5.7,49.6,4.6,49.6"/>
	</defs>
	<clipPath id="SVGID_6_">
		<use xlink:href="#SVGID_5_"  style="overflow:visible;"/>
	</clipPath>
	<g class="st4">
		<defs>
			<rect id="SVGID_7_" x="-396.4" y="-350.4" width="1686" height="577"/>
		</defs>
		<clipPath id="SVGID_8_">
			<use xlink:href="#SVGID_7_"  style="overflow:visible;"/>
		</clipPath>
		<rect x="-2.4" y="44.6" class="st2" width="14" height="14"/>
	</g>
</g>
<g>
	<defs>
		<circle id="SVGID_9_" cx="35.6" cy="51.6" r="2"/>
	</defs>
	<clipPath id="SVGID_10_">
		<use xlink:href="#SVGID_9_"  style="overflow:visible;"/>
	</clipPath>
	<g class="st7">
		<defs>
			<rect id="SVGID_11_" x="-396.4" y="-350.4" width="1686" height="577"/>
		</defs>
		<clipPath id="SVGID_12_">
			<use xlink:href="#SVGID_11_"  style="overflow:visible;"/>
		</clipPath>
		<rect x="28.6" y="44.6" class="st6" width="14" height="14"/>
	</g>
</g>
<path class="st5" d="M4.9,29.6c-2.3,0-4.2-2-4.2-4.4v-5.5c0-1.2,0.9-2.2,2.1-2.2h3.9"/>
<path class="st5" d="M35.4,29.6c2.3,0,4.2-2,4.2-4.4v-5.5c0-1.2-0.9-2.2-2.1-2.2h-3.9"/>
<line class="st1" x1="20.1" y1="37.6" x2="20.1" y2="48.6"/>
<path class="st5" d="M8.8,26.6h23.6c1.8,0,3.2,1.3,3.2,3s-1.4,3-3.2,3H8.8c-1.8,0-3.2-1.3-3.2-3S7.1,26.6,8.8,26.6z"/>
<polyline class="st1" points="5.6,47.6 20.6,41.6 35.6,47.6 "/>
<path class="st5" d="M32.4,26.6H8.8c-1.3,0-2.3-1.1-2.2-2.3L8.5,2.6c0.1-1.1,1-2,2.2-2h20c1.1,0,2.1,0.9,2.2,2l1.8,21.7
	C34.7,25.5,33.7,26.6,32.4,26.6z"/>
<path class="st1" d="M16.6,33.6v2c0,1.1,1,2,2.3,2h2.3c1.3,0,2.3-0.9,2.3-2v-2"/>
</svg>
