<?xml version="1.0" encoding="utf-8"?>
<!-- Generator: Adobe Illustrator 16.0.0, SVG Export Plug-In . SVG Version: 6.00 Build 0)  -->
<!DOCTYPE svg PUBLIC "-//W3C//DTD SVG 1.1//EN" "http://www.w3.org/Graphics/SVG/1.1/DTD/svg11.dtd">
<svg version="1.1" id="Layer_1" xmlns="http://www.w3.org/2000/svg" xmlns:xlink="http://www.w3.org/1999/xlink" x="0px" y="0px"
	 width="22.5px" height="24px" viewBox="0 0 22.5 24" style="enable-background:new 0 0 22.5 24;" xml:space="preserve">
<style type="text/css">
<![CDATA[
	.st0{fill:none;stroke:#010101;stroke-width:1.5;stroke-linecap:round;stroke-linejoin:round;stroke-miterlimit:10;}
]]>
</style>
<line class="st0" x1="11.3" y1="0.8" x2="11.3" y2="10.5"/>
<polyline class="st0" points="7.5,7.5 11.3,10.5 15,7.5 "/>
<polygon class="st0" points="11.3,23.3 0.8,17.3 0.8,8.3 11.3,14.3 "/>
<polygon class="st0" points="21.8,17.3 11.3,23.3 11.3,14.3 21.8,8.3 "/>
<polyline class="st0" points="14.2,4.5 21.8,8.3 11.3,14.3 0.8,8.3 8.3,4.5 "/>
</svg>
