<?xml version="1.0" encoding="utf-8"?>
<!-- Generator: Adobe Illustrator 16.0.0, SVG Export Plug-In . SVG Version: 6.00 Build 0)  -->
<!DOCTYPE svg PUBLIC "-//W3C//DTD SVG 1.1//EN" "http://www.w3.org/Graphics/SVG/1.1/DTD/svg11.dtd">
<svg version="1.1" id="Layer_1" xmlns="http://www.w3.org/2000/svg" xmlns:xlink="http://www.w3.org/1999/xlink" x="0px" y="0px"
	 width="61px" height="42px" viewBox="0 0 61 42" style="enable-background:new 0 0 61 42;" xml:space="preserve">
<style type="text/css">
<![CDATA[
	.st0{clip-path:url(#SVGID_16_);fill:#010101;}
	.st1{clip-path:url(#SVGID_2_);}
	.st2{clip-path:url(#SVGID_8_);}
	.st3{opacity:0;}
	.st4{opacity:0;clip-path:url(#SVGID_4_);}
	.st5{clip-path:url(#SVGID_10_);enable-background:new    ;}
	.st6{clip-path:url(#SVGID_12_);}
	.st7{clip-path:url(#SVGID_14_);}
]]>
</style>
<g>
	<defs>
		<path id="SVGID_1_" d="M82.9,19.2c0-27.4-22.3-49.7-49.7-49.7S-16.6-8.2-16.6,19.2S5.7,68.9,33.1,68.9S82.9,46.6,82.9,19.2z"/>
	</defs>
	<clipPath id="SVGID_2_">
		<use xlink:href="#SVGID_1_"  style="overflow:visible;"/>
	</clipPath>
	<g class="st1">
		<defs>
			<rect id="SVGID_3_" x="-872" y="-95" width="1686" height="577"/>
		</defs>
		<clipPath id="SVGID_4_">
			<use xlink:href="#SVGID_3_"  style="overflow:visible;"/>
		</clipPath>
		<g class="st4">
			<g class="st3">
				<g>
					<defs>
						<rect id="SVGID_5_" x="-872" y="-95" width="1686" height="577"/>
					</defs>
					<clipPath id="SVGID_6_">
						<use xlink:href="#SVGID_5_"  style="overflow:visible;"/>
					</clipPath>
					<g style="clip-path:url(#SVGID_6_);">
						
							<image style="overflow:visible;" width="7025" height="2405" xlink:href="E17C2A8D.jpg"  transform="matrix(0.24 0 0 0.24 -872 -95)">
						</image>
					</g>
				</g>
			</g>
		</g>
	</g>
</g>
<g>
	<defs>
		<rect id="SVGID_7_" width="61" height="42"/>
	</defs>
	<clipPath id="SVGID_8_">
		<use xlink:href="#SVGID_7_"  style="overflow:visible;"/>
	</clipPath>
	<g class="st2">
		<defs>
			<rect id="SVGID_9_" x="-872" y="-95" width="1686" height="577"/>
		</defs>
		<clipPath id="SVGID_10_">
			<use xlink:href="#SVGID_9_"  style="overflow:visible;"/>
		</clipPath>
		<g class="st5">
			<g>
				<defs>
					<rect id="SVGID_11_" width="62" height="42"/>
				</defs>
				<clipPath id="SVGID_12_">
					<use xlink:href="#SVGID_11_"  style="overflow:visible;"/>
				</clipPath>
				<g class="st6">
					<defs>
						<path id="SVGID_13_" d="M60.3,22.5c-2.4-3.2-7.6,0.4-7.8,0.6c0,0-1.3,0.8-3,1.7c2-2.7,3.1-5.9,3.1-9.3C52.7,6.9,45.8,0,37.3,0
							C28.9,0,22,6.9,22,15.5c0,1.5,0.2,3,0.6,4.4l-2.1-1c-0.4-0.2-0.8-0.3-1.2-0.3h-7.6v-3H0v23.7h11.7v-3.6h5l14,5
							c0.1,0.1,2.4,1.2,4.7,1.2c2.4,0,3.9-1.1,4-1.2l18.5-12.3c0.1-0.1,2.6-1.5,3-3.5C61.1,24.2,60.9,23.3,60.3,22.5z M42.7,27.9
							c0.2-0.4,0.3-0.8,0.3-1.3c0-0.1,0-0.1,0-0.2l0.2-0.4c0.6-1.2,1.1-2.7,1.4-4.2h5.3c-0.8,1.7-2,3.2-3.5,4.5l-0.3,0.2
							C45,27.1,43.8,27.6,42.7,27.9z M31.6,22.6c-0.1-0.2-0.1-0.5-0.2-0.8h5.3v0.8H31.6z M30.3,22.6h-0.8c-0.6,0-1.3-0.1-1.8-0.4
							l-0.8-0.4h3.2C30.2,22.1,30.2,22.3,30.3,22.6z M30.7,15.5c0-1.8,0.2-3.5,0.5-5.1h5.6v10.2h-5.6C30.8,18.9,30.7,17.2,30.7,15.5
							z M44,15.5c0,1.8-0.2,3.5-0.5,5.1H38V10.4h5.6C43.8,12,44,13.7,44,15.5z M38,9.1V1.3c2.3,0.5,4.3,3.5,5.3,7.8H38z M36.7,1.3
							v7.8h-5.3C32.4,4.9,34.4,1.8,36.7,1.3z M38,21.8h5.3c-0.2,1-0.5,1.9-0.8,2.7c-0.4-0.7-1-1.3-1.8-1.7c-0.4-0.2-0.8-0.3-1.2-0.3
							H38V21.8z M50.5,20.6h-5.6c0.3-1.6,0.4-3.3,0.4-5.1c0-1.8-0.2-3.5-0.4-5.1h5.6c0.6,1.6,1,3.3,1,5.1
							C51.4,17.2,51.1,18.9,50.5,20.6z M49.9,9.1h-5.3c-0.7-3.1-1.9-5.7-3.5-7.3C44.9,2.9,48.1,5.6,49.9,9.1z M33.6,1.8
							C32,3.4,30.8,6,30.1,9.1h-5.3C26.5,5.6,29.7,2.9,33.6,1.8z M24.2,10.4h5.6c-0.3,1.6-0.4,3.3-0.4,5.1c0,1.7,0.2,3.5,0.5,5.1
							h-5.7l0,0c-0.6-1.6-0.9-3.3-0.9-5.1C23.2,13.7,23.6,12,24.2,10.4z M10.5,38.1H1.3V16.9h9.2v1.7v1.3v14.6v1.3V38.1z M59.7,24.8
							c-0.3,1.2-1.8,2.3-2.4,2.7L38.7,39.8c0,0-1.3,0.9-3.3,0.9c-2,0-4.1-1.1-4.2-1.1l-14.2-5.1l-5.3,0V19.9h7.6
							c0.2,0,0.5,0.1,0.7,0.2l3.2,1.5l0,0.1l0.1,0l0.5,0.2v0.1h0.1l3.2,1.5c0.7,0.3,1.5,0.5,2.3,0.5h1.2l0,0l0,0h8.8
							c0.2,0,0.4,0,0.6,0.1c0.8,0.4,1.6,1.2,1.6,2.6c0,0.5-0.1,0.8-0.4,1.1c-0.6,0.6-1.8,0.7-2.3,0.7l-10.5,0l-0.1,0
							c-0.1,0-3.6,0.8-3.6,3.4v0.6H26v-0.6c0-1.4,2.1-2.1,2.5-2.2l10.4,0c0,0,0.6,0,1.2-0.1l0,0l0.6,0c1.7-0.1,3.8-0.9,5.9-1.9l0,0
							l0.1-0.1c3.2-1.5,6.2-3.3,6.4-3.5c0,0,4.4-3.1,6.1-0.9C59.7,23.8,59.8,24.3,59.7,24.8z"/>
					</defs>
					<clipPath id="SVGID_14_">
						<use xlink:href="#SVGID_13_"  style="overflow:visible;"/>
					</clipPath>
					<g class="st7">
						<defs>
							<rect id="SVGID_15_" width="61" height="42"/>
						</defs>
						<clipPath id="SVGID_16_">
							<use xlink:href="#SVGID_15_"  style="overflow:visible;"/>
						</clipPath>
						<rect x="-5" y="-5" class="st0" width="71" height="52"/>
					</g>
				</g>
			</g>
		</g>
	</g>
</g>
</svg>
