<?xml version="1.0" encoding="utf-8"?>
<!-- Generator: Adobe Illustrator 16.0.0, SVG Export Plug-In . SVG Version: 6.00 Build 0)  -->
<!DOCTYPE svg PUBLIC "-//W3C//DTD SVG 1.1//EN" "http://www.w3.org/Graphics/SVG/1.1/DTD/svg11.dtd">
<svg version="1.1" id="Layer_1" xmlns="http://www.w3.org/2000/svg" xmlns:xlink="http://www.w3.org/1999/xlink" x="0px" y="0px"
	 width="66.5px" height="46px" viewBox="0 0 66.5 46" style="enable-background:new 0 0 66.5 46;" xml:space="preserve">
<style type="text/css">
<![CDATA[
	.st0{clip-path:url(#SVGID_14_);fill:none;stroke:#010101;stroke-miterlimit:10;}
	.st1{clip-path:url(#SVGID_6_);fill:#010101;}
	.st2{clip-path:url(#SVGID_2_);fill:none;stroke:#010101;stroke-miterlimit:10;}
	.st3{clip-path:url(#SVGID_18_);fill:#010101;}
	.st4{clip-path:url(#SVGID_4_);}
	.st5{clip-path:url(#SVGID_8_);fill:none;stroke:#010101;stroke-miterlimit:10;}
	.st6{clip-path:url(#SVGID_20_);fill:none;stroke:#010101;stroke-miterlimit:10;}
	.st7{clip-path:url(#SVGID_12_);fill:#010101;}
	.st8{clip-path:url(#SVGID_10_);}
	.st9{clip-path:url(#SVGID_16_);}
]]>
</style>
<g>
	<defs>
		<rect id="SVGID_1_" x="-1467.5" y="-86" width="1686" height="577"/>
	</defs>
	<clipPath id="SVGID_2_">
		<use xlink:href="#SVGID_1_"  style="overflow:visible;"/>
	</clipPath>
	<path class="st2" d="M24.5,33.2c1.3,6.1,6.4,8.5,15.8,9.5c0.9,0.1,1.8,0.2,2.8,0.2c4,0,7.9-0.9,11.1-2.8l5.7,2.6l-1.4-5.8l0,0
		c2.6-2.7,4-5.8,4-9.2c0-8.4-7.2-16.8-24.9-14.4"/>
</g>
<g>
	<defs>
		<path id="SVGID_3_" d="M12.5,16.5c0,0.8,0.7,1.5,1.5,1.5c0.8,0,1.5-0.7,1.5-1.5c0-0.8-0.7-1.5-1.5-1.5
			C13.2,15,12.5,15.7,12.5,16.5"/>
	</defs>
	<clipPath id="SVGID_4_">
		<use xlink:href="#SVGID_3_"  style="overflow:visible;"/>
	</clipPath>
	<g class="st4">
		<defs>
			<rect id="SVGID_5_" x="-1467.5" y="-86" width="1686" height="577"/>
		</defs>
		<clipPath id="SVGID_6_">
			<use xlink:href="#SVGID_5_"  style="overflow:visible;"/>
		</clipPath>
		<rect x="7.5" y="10" class="st1" width="13" height="13"/>
	</g>
</g>
<g>
	<defs>
		<rect id="SVGID_7_" x="-1467.5" y="-86" width="1686" height="577"/>
	</defs>
	<clipPath id="SVGID_8_">
		<use xlink:href="#SVGID_7_"  style="overflow:visible;"/>
	</clipPath>
	<path class="st5" d="M12.5,16.5c0,0.8,0.7,1.5,1.5,1.5c0.8,0,1.5-0.7,1.5-1.5c0-0.8-0.7-1.5-1.5-1.5C13.2,15,12.5,15.7,12.5,16.5z"
		/>
</g>
<g>
	<defs>
		<path id="SVGID_9_" d="M19.5,16.5c0,0.8,0.7,1.5,1.5,1.5c0.8,0,1.5-0.7,1.5-1.5c0-0.8-0.7-1.5-1.5-1.5
			C20.2,15,19.5,15.7,19.5,16.5"/>
	</defs>
	<clipPath id="SVGID_10_">
		<use xlink:href="#SVGID_9_"  style="overflow:visible;"/>
	</clipPath>
	<g class="st8">
		<defs>
			<rect id="SVGID_11_" x="-1467.5" y="-86" width="1686" height="577"/>
		</defs>
		<clipPath id="SVGID_12_">
			<use xlink:href="#SVGID_11_"  style="overflow:visible;"/>
		</clipPath>
		<rect x="14.5" y="10" class="st7" width="13" height="13"/>
	</g>
</g>
<g>
	<defs>
		<rect id="SVGID_13_" x="-1467.5" y="-86" width="1686" height="577"/>
	</defs>
	<clipPath id="SVGID_14_">
		<use xlink:href="#SVGID_13_"  style="overflow:visible;"/>
	</clipPath>
	<path class="st0" d="M19.5,16.5c0,0.8,0.7,1.5,1.5,1.5c0.8,0,1.5-0.7,1.5-1.5c0-0.8-0.7-1.5-1.5-1.5C20.2,15,19.5,15.7,19.5,16.5z"
		/>
</g>
<g>
	<defs>
		<path id="SVGID_15_" d="M24.5,16.5c0,0.8,0.7,1.5,1.5,1.5c0.8,0,1.5-0.7,1.5-1.5c0-0.8-0.7-1.5-1.5-1.5
			C25.2,15,24.5,15.7,24.5,16.5"/>
	</defs>
	<clipPath id="SVGID_16_">
		<use xlink:href="#SVGID_15_"  style="overflow:visible;"/>
	</clipPath>
	<g class="st9">
		<defs>
			<rect id="SVGID_17_" x="-1467.5" y="-86" width="1686" height="577"/>
		</defs>
		<clipPath id="SVGID_18_">
			<use xlink:href="#SVGID_17_"  style="overflow:visible;"/>
		</clipPath>
		<rect x="19.5" y="10" class="st3" width="13" height="13"/>
	</g>
</g>
<g>
	<defs>
		<rect id="SVGID_19_" x="-1467.5" y="-86" width="1686" height="577"/>
	</defs>
	<clipPath id="SVGID_20_">
		<use xlink:href="#SVGID_19_"  style="overflow:visible;"/>
	</clipPath>
	<path class="st6" d="M24.5,16.5c0,0.8,0.7,1.5,1.5,1.5c0.8,0,1.5-0.7,1.5-1.5c0-0.8-0.7-1.5-1.5-1.5C25.2,15,24.5,15.7,24.5,16.5z"
		/>
	<path class="st6" d="M6.1,27.1c-2.4-2.6-3.6-5.8-3.6-9.1C2.5,9.7,10.4,3,20,3c3.9,0,7.5,1.2,10.4,3c4.3,2.7,7.1,7.1,7.1,12
		c0,7.5-6.5,13.7-15,14.8C21.7,32.9,20.9,33,20,33c-3.6,0-7.1-0.9-10-2.7l-5.1,2.6L6.1,27.1L6.1,27.1z"/>
	<g style="clip-path:url(#SVGID_20_);">
	</g>
</g>
</svg>
